<!--?xml version="1.0" encoding="utf-8"?-->
<!-- Generator: Adobe Illustrator 18.1.1, SVG Export Plug-In . SVG Version: 6.00 Build 0)  -->

<svg version="1.1" id="_x32_" xmlns="http://www.w3.org/2000/svg" xmlns:xlink="http://www.w3.org/1999/xlink" x="0px" y="0px" viewBox="0 0 512 512" style="width: 16px; height: 16px; opacity: 1;" xml:space="preserve">
<style type="text/css">
	.st0{fill:#4B4B4B;}
</style>
<g>
	<path class="st0" d="M176.014,0l-2.823,0.01C89.091,1.164,20.78,63.557,15.904,118.564c-3.125,35.072,4.693,63.941,22.568,83.494
		c16.307,17.803,39.765,26.836,69.727,26.836c31.095,0,61.603-29.77,61.603-60.106c0-30.803-25.076-55.869-55.888-55.869
		c-16.569,0-27.575,7.323-34.858,12.179c-2.853,1.892-5.796,3.854-7.121,3.854c-0.446,0-1.477-1.184-2.458-5.635
		c-3.399-15.335,1.902-33.644,14.212-48.98c10.399-12.978,34.858-34.726,81.876-34.726c65.67,0,101.833,52.894,101.833,148.952
		c0,192.852-165.703,271.845-216.483,291.459c-10.398,4.016-13.778,12.716-12.492,19.553C39.828,507.002,45.947,512,53.686,512
		c2.448,0,5.037-0.496,7.657-1.477l5.807-2.165C262.916,435.82,362.19,326.247,362.19,182.648C362.19,57.164,265.688,0,176.014,0z" style="fill: rgb(75, 75, 75);"></path>
	<path class="st0" d="M455.486,126.84c22.771,0,41.282-18.522,41.282-41.292c0-22.76-18.512-41.271-41.282-41.271
		c-22.759,0-41.281,18.511-41.281,41.271C414.205,108.318,432.726,126.84,455.486,126.84z" style="fill: rgb(75, 75, 75);"></path>
	<path class="st0" d="M455.486,211.365c-22.759,0-41.281,18.522-41.281,41.282c0,22.77,18.522,41.281,41.281,41.281
		c22.771,0,41.282-18.511,41.282-41.281C496.768,229.887,478.256,211.365,455.486,211.365z" style="fill: rgb(75, 75, 75);"></path>
</g>
</svg>
